\relax 
\providecommand\hyper@newdestlabel[2]{}
\providecommand\HyperFirstAtBeginDocument{\AtBeginDocument}
\HyperFirstAtBeginDocument{\ifx\hyper@anchor\@undefined
\global\let\oldcontentsline\contentsline
\gdef\contentsline#1#2#3#4{\oldcontentsline{#1}{#2}{#3}}
\global\let\oldnewlabel\newlabel
\gdef\newlabel#1#2{\newlabelxx{#1}#2}
\gdef\newlabelxx#1#2#3#4#5#6{\oldnewlabel{#1}{{#2}{#3}}}
\AtEndDocument{\ifx\hyper@anchor\@undefined
\let\contentsline\oldcontentsline
\let\newlabel\oldnewlabel
\fi}
\fi}
\global\let\hyper@last\relax 
\gdef\HyperFirstAtBeginDocument#1{#1}
\providecommand\HyField@AuxAddToFields[1]{}
\providecommand\HyField@AuxAddToCoFields[2]{}
\citation{l1}
\@writefile{toc}{\contentsline {section}{\numberline {1}Uvod}{3}{section.1}\protected@file@percent }
\@writefile{toc}{\contentsline {section}{\numberline {2}Opis problema}{4}{section.2}\protected@file@percent }
\citation{l2}
\@writefile{toc}{\contentsline {section}{\numberline {3}Algoritmi i metode}{5}{section.3}\protected@file@percent }
\@writefile{toc}{\contentsline {subsection}{\numberline {3.1}ARIMA model (AutoRegressive Integrated Moving Average) }{5}{subsection.3.1}\protected@file@percent }
\@writefile{toc}{\contentsline {subsection}{\numberline {3.2}SARIMA - Seasonal Autoregressive Integrated Moving Average }{5}{subsection.3.2}\protected@file@percent }
\@writefile{toc}{\contentsline {subsection}{\numberline {3.3}Rekurentne neuronske mreže- RNN }{6}{subsection.3.3}\protected@file@percent }
\@writefile{toc}{\contentsline {subsubsection}{\numberline {3.3.1}LSTM Mreže - Long short-term memory}{6}{subsubsection.3.3.1}\protected@file@percent }
\citation{l3}
\@writefile{toc}{\contentsline {subsubsection}{\numberline {3.3.2}Gated Recurrent Unit (GRU) mreže}{7}{subsubsection.3.3.2}\protected@file@percent }
\@writefile{toc}{\contentsline {subsection}{\numberline {3.4}LOWESS - Local Regression Smoothing}{7}{subsection.3.4}\protected@file@percent }
\citation{l4}
\@writefile{toc}{\contentsline {subsection}{\numberline {3.5}STL metodologija}{8}{subsection.3.5}\protected@file@percent }
\citation{l5}
\@writefile{toc}{\contentsline {section}{\numberline {4}Analiza vremenskih serija kretanja kursa dinara u odnosu na evro u periodu od 2003. do 2023. godine}{9}{section.4}\protected@file@percent }
\@writefile{lof}{\contentsline {figure}{\numberline {1}{\ignorespaces Minimalni, maksimalni i srednji kurs\relax }}{9}{figure.caption.2}\protected@file@percent }
\providecommand*\caption@xref[2]{\@setref\relax\@undefined{#1}}
\newlabel{fig:slika1}{{1}{9}{Minimalni, maksimalni i srednji kurs\relax }{figure.caption.2}{}}
\citation{l6}
\@writefile{lof}{\contentsline {figure}{\numberline {2}{\ignorespaces Promena kursa evra po godinama\relax }}{10}{figure.caption.3}\protected@file@percent }
\newlabel{fig:slika1}{{2}{10}{Promena kursa evra po godinama\relax }{figure.caption.3}{}}
\@writefile{lof}{\contentsline {figure}{\numberline {3}{\ignorespaces Kretanje kursa na mesečnom nivou\relax }}{12}{figure.caption.7}\protected@file@percent }
\newlabel{fig:slika2}{{3}{12}{Kretanje kursa na mesečnom nivou\relax }{figure.caption.7}{}}
\@writefile{toc}{\contentsline {subsection}{\numberline {4.1}Primena STL dekompozicije nad podacima za kretanje kursa dinara u odnosu na evro}{13}{subsection.4.1}\protected@file@percent }
\@writefile{lof}{\contentsline {figure}{\numberline {4}{\ignorespaces STL\relax }}{13}{figure.caption.8}\protected@file@percent }
\newlabel{fig:slika3}{{4}{13}{STL\relax }{figure.caption.8}{}}
\@writefile{toc}{\contentsline {subsection}{\numberline {4.2}ARIMA model treniran nad podacima za kretanje kursa dinara u odnosu na evro}{14}{subsection.4.2}\protected@file@percent }
\@writefile{toc}{\contentsline {subsection}{\numberline {4.3}ARIMA sa podešenim hiperparametrima nad podacima za kretanje kursa dinara u odnosu na vero}{15}{subsection.4.3}\protected@file@percent }
\@writefile{toc}{\contentsline {subsection}{\numberline {4.4}ARIMA u RapidMiner-u}{17}{subsection.4.4}\protected@file@percent }
\@writefile{lof}{\contentsline {figure}{\numberline {5}{\ignorespaces Arima u RapidMiner-u za kretanje kursa\relax }}{17}{figure.caption.9}\protected@file@percent }
\newlabel{fig:slika1}{{5}{17}{Arima u RapidMiner-u za kretanje kursa\relax }{figure.caption.9}{}}
\@writefile{toc}{\contentsline {subsection}{\numberline {4.5}SARIMA model treniran nad podacima za kretanje kursa dinara u odnosu na evro}{17}{subsection.4.5}\protected@file@percent }
\@writefile{toc}{\contentsline {subsection}{\numberline {4.6}GRU mreža nad podacima za kretanje kursa dinara u odnosu na evro}{18}{subsection.4.6}\protected@file@percent }
\@writefile{lot}{\contentsline {table}{\numberline {1}{\ignorespaces Kretanje kursa predviđeno GRU mrežom\relax }}{18}{table.caption.10}\protected@file@percent }
\newlabel{tab:lista_podataka}{{1}{18}{Kretanje kursa predviđeno GRU mrežom\relax }{table.caption.10}{}}
\@writefile{toc}{\contentsline {subsection}{\numberline {4.7}LSTM mreža nad podacima za kretanje kursa dinara u odnosu na evro}{19}{subsection.4.7}\protected@file@percent }
\@writefile{lot}{\contentsline {table}{\numberline {2}{\ignorespaces Kretanje kursa predviđeno LSTM mrežom\relax }}{19}{table.caption.11}\protected@file@percent }
\newlabel{tab:lista_podataka}{{2}{19}{Kretanje kursa predviđeno LSTM mrežom\relax }{table.caption.11}{}}
\@writefile{toc}{\contentsline {subsection}{\numberline {4.8}LOWEES nad podacima za kretanje kursa dinara u odnosu na evro}{19}{subsection.4.8}\protected@file@percent }
\newlabel{fig:slika1}{{6a}{20}{Lowess nad podacima grupisanim po godinama\relax }{figure.caption.12}{}}
\newlabel{sub@fig:slika1}{{a}{20}{Lowess nad podacima grupisanim po godinama\relax }{figure.caption.12}{}}
\newlabel{fig:slika2}{{6b}{20}{Lowess nad podacima grupisanim po mesecima i godinama\relax }{figure.caption.12}{}}
\newlabel{sub@fig:slika2}{{b}{20}{Lowess nad podacima grupisanim po mesecima i godinama\relax }{figure.caption.12}{}}
\newlabel{fig:LOWESS_kurs}{{\caption@xref {fig:LOWESS_kurs}{ on input line 550}}{20}{LOWEES nad podacima za kretanje kursa dinara u odnosu na evro}{figure.caption.12}{}}
\@writefile{toc}{\contentsline {section}{\numberline {5}Analiza vremenskih serija prosečnih temperatura u Begradu u periodu od 1887. do 2017. godine}{21}{section.5}\protected@file@percent }
\@writefile{toc}{\contentsline {subsection}{\numberline {5.1}Sređivanje podataka i vizuaizacija}{21}{subsection.5.1}\protected@file@percent }
\@writefile{lof}{\contentsline {figure}{\numberline {7}{\ignorespaces Prosečna temperatura po mesecima\relax }}{22}{figure.caption.13}\protected@file@percent }
\newlabel{fig:slika4}{{7}{22}{Prosečna temperatura po mesecima\relax }{figure.caption.13}{}}
\@writefile{lof}{\contentsline {figure}{\numberline {8}{\ignorespaces Prosečna temperatura po sezonama\relax }}{22}{figure.caption.14}\protected@file@percent }
\newlabel{fig:slika5}{{8}{22}{Prosečna temperatura po sezonama\relax }{figure.caption.14}{}}
\citation{l7}
\citation{l8}
\@writefile{lof}{\contentsline {figure}{\numberline {9}{\ignorespaces Prosečna temperatura po godinama\relax }}{23}{figure.caption.15}\protected@file@percent }
\newlabel{fig:slika6}{{9}{23}{Prosečna temperatura po godinama\relax }{figure.caption.15}{}}
\@writefile{lof}{\contentsline {figure}{\numberline {10}{\ignorespaces Prosečna temperatura po godišnjim dobima za sve godine\relax }}{24}{figure.caption.16}\protected@file@percent }
\newlabel{fig:slika7}{{10}{24}{Prosečna temperatura po godišnjim dobima za sve godine\relax }{figure.caption.16}{}}
\@writefile{toc}{\contentsline {subsection}{\numberline {5.2}Primena ARIMA algoritma na podatke o temperaturama}{24}{subsection.5.2}\protected@file@percent }
\@writefile{lot}{\contentsline {table}{\numberline {3}{\ignorespaces ARIMA model i dobijeni rezultati u python-u\relax }}{24}{table.caption.17}\protected@file@percent }
\newlabel{tab:greske_arima}{{3}{24}{ARIMA model i dobijeni rezultati u python-u\relax }{table.caption.17}{}}
\@writefile{lof}{\contentsline {figure}{\numberline {11}{\ignorespaces ARIMA model - PROSEK\relax }}{25}{figure.caption.18}\protected@file@percent }
\newlabel{fig:slika9}{{11}{25}{ARIMA model - PROSEK\relax }{figure.caption.18}{}}
\@writefile{lof}{\contentsline {figure}{\numberline {12}{\ignorespaces ARIMA model - LETO\relax }}{25}{figure.caption.19}\protected@file@percent }
\newlabel{fig:slika10}{{12}{25}{ARIMA model - LETO\relax }{figure.caption.19}{}}
\@writefile{lof}{\contentsline {figure}{\numberline {13}{\ignorespaces ARIMA model - ZIMA\relax }}{25}{figure.caption.20}\protected@file@percent }
\newlabel{fig:slika11}{{13}{25}{ARIMA model - ZIMA\relax }{figure.caption.20}{}}
\@writefile{toc}{\contentsline {subsection}{\numberline {5.3}Primena SARIMA algoritma na podatke o temperaturama}{26}{subsection.5.3}\protected@file@percent }
\@writefile{lot}{\contentsline {table}{\numberline {4}{\ignorespaces Predviđene vrednosti i intervali pouzdanosti za prosečne godišnje temperature\relax }}{26}{table.caption.21}\protected@file@percent }
\newlabel{tab:predvidjene_vrednosti}{{4}{26}{Predviđene vrednosti i intervali pouzdanosti za prosečne godišnje temperature\relax }{table.caption.21}{}}
\@writefile{lot}{\contentsline {table}{\numberline {5}{\ignorespaces MSE vrednosti za različite sezone i različite vrednosti parametra m\relax }}{26}{table.caption.22}\protected@file@percent }
\newlabel{tab:mse_vrednosti}{{5}{26}{MSE vrednosti za različite sezone i različite vrednosti parametra m\relax }{table.caption.22}{}}
\@writefile{lot}{\contentsline {table}{\numberline {6}{\ignorespaces Predviđene vrednosti i intervali pouzdanosti za zimsku temperaturu\relax }}{27}{table.caption.23}\protected@file@percent }
\newlabel{tab:zima}{{6}{27}{Predviđene vrednosti i intervali pouzdanosti za zimsku temperaturu\relax }{table.caption.23}{}}
\@writefile{lot}{\contentsline {table}{\numberline {7}{\ignorespaces Predviđene vrednosti i intervali pouzdanosti za letnju temperaturu\relax }}{27}{table.caption.24}\protected@file@percent }
\newlabel{tab:leto}{{7}{27}{Predviđene vrednosti i intervali pouzdanosti za letnju temperaturu\relax }{table.caption.24}{}}
\@writefile{toc}{\contentsline {subsection}{\numberline {5.4}Primena LOWESS algoritma na podatke o temperaturama}{27}{subsection.5.4}\protected@file@percent }
\newlabel{fig:slika14a}{{14a}{28}{Prikaz bez podešenih parametara\relax }{figure.caption.25}{}}
\newlabel{sub@fig:slika14a}{{a}{28}{Prikaz bez podešenih parametara\relax }{figure.caption.25}{}}
\newlabel{fig:slika14b}{{14b}{28}{Prikaz sa podešenim parametetrima\relax }{figure.caption.25}{}}
\newlabel{sub@fig:slika14b}{{b}{28}{Prikaz sa podešenim parametetrima\relax }{figure.caption.25}{}}
\@writefile{lof}{\contentsline {figure}{\numberline {14}{\ignorespaces Dekompozicija za leto i zimu\relax }}{28}{figure.caption.25}\protected@file@percent }
\newlabel{fig:leto_zima}{{14}{28}{Dekompozicija za leto i zimu\relax }{figure.caption.25}{}}
\@writefile{lot}{\contentsline {table}{\numberline {8}{\ignorespaces Srednje kvadratne i srednje apsolutne greške za različite periode bez podešenih parametara\relax }}{28}{table.caption.26}\protected@file@percent }
\newlabel{tab:greske}{{8}{28}{Srednje kvadratne i srednje apsolutne greške za različite periode bez podešenih parametara\relax }{table.caption.26}{}}
\@writefile{lot}{\contentsline {table}{\numberline {9}{\ignorespaces Srednje kvadratne i srednje apsolutne greške za različite periode sa podešenim parametrima\relax }}{28}{table.caption.27}\protected@file@percent }
\newlabel{tab:table9}{{9}{28}{Srednje kvadratne i srednje apsolutne greške za različite periode sa podešenim parametrima\relax }{table.caption.27}{}}
\@writefile{toc}{\contentsline {subsection}{\numberline {5.5}Primena LSTM algoritma na podatke o temperaturama}{29}{subsection.5.5}\protected@file@percent }
\newlabel{tab:lstm_temp}{{\caption@xref {tab:lstm_temp}{ on input line 846}}{29}{Primena LSTM algoritma na podatke o temperaturama}{table.caption.28}{}}
\@writefile{lot}{\contentsline {table}{\numberline {10}{\ignorespaces Srednje kvadratne i srednje apsolutne greške za različite periode sa podešenim parametrima\relax }}{29}{table.caption.28}\protected@file@percent }
\@writefile{toc}{\contentsline {subsection}{\numberline {5.6}Primena STL dekompozicije na podatke o temperaturama }{29}{subsection.5.6}\protected@file@percent }
\@writefile{lof}{\contentsline {figure}{\numberline {15}{\ignorespaces Dekompozicija za prosek\relax }}{30}{figure.caption.29}\protected@file@percent }
\newlabel{fig:slika15}{{15}{30}{Dekompozicija za prosek\relax }{figure.caption.29}{}}
\newlabel{fig:leto}{{16a}{30}{STL-leto\relax }{figure.caption.30}{}}
\newlabel{sub@fig:leto}{{a}{30}{STL-leto\relax }{figure.caption.30}{}}
\newlabel{fig:zima}{{16b}{30}{STL-zima\relax }{figure.caption.30}{}}
\newlabel{sub@fig:zima}{{b}{30}{STL-zima\relax }{figure.caption.30}{}}
\@writefile{lof}{\contentsline {figure}{\numberline {16}{\ignorespaces Dekompozicija za leto i zimu\relax }}{30}{figure.caption.30}\protected@file@percent }
\newlabel{fig:leto_zima}{{16}{30}{Dekompozicija za leto i zimu\relax }{figure.caption.30}{}}
\@writefile{toc}{\contentsline {subsection}{\numberline {5.7}Primena GRU mreže na podatke o temperaturama}{31}{subsection.5.7}\protected@file@percent }
\@writefile{lot}{\contentsline {table}{\numberline {11}{\ignorespaces Predviđene prosečne temperature\relax }}{31}{table.caption.31}\protected@file@percent }
\newlabel{tab:prosecne_temperature}{{11}{31}{Predviđene prosečne temperature\relax }{table.caption.31}{}}
\newlabel{tab:gru}{{\caption@xref {tab:gru}{ on input line 942}}{31}{Primena GRU mreže na podatke o temperaturama}{table.caption.32}{}}
\@writefile{lot}{\contentsline {table}{\numberline {12}{\ignorespaces GRU\relax }}{31}{table.caption.32}\protected@file@percent }
\@writefile{toc}{\contentsline {section}{\numberline {6}Zaključak}{32}{section.6}\protected@file@percent }
\@writefile{toc}{\contentsline {subsection}{\numberline {6.1}Kretanje kursa u odnosu na evro}{32}{subsection.6.1}\protected@file@percent }
\newlabel{tab:performance_comparison}{{\caption@xref {tab:performance_comparison}{ on input line 958}}{32}{Kretanje kursa u odnosu na evro}{table.caption.33}{}}
\@writefile{lot}{\contentsline {table}{\numberline {13}{\ignorespaces Poređenje performansi različitih modela\relax }}{32}{table.caption.33}\protected@file@percent }
\@writefile{toc}{\contentsline {subsection}{\numberline {6.2}Prosečne temperature u Beogradu}{32}{subsection.6.2}\protected@file@percent }
\newlabel{tab:performance_comparison}{{\caption@xref {tab:performance_comparison}{ on input line 984}}{33}{Prosečne temperature u Beogradu}{table.caption.34}{}}
\@writefile{lot}{\contentsline {table}{\numberline {14}{\ignorespaces Poređenje performansi različitih modela za prosečne godišnje temperature\relax }}{33}{table.caption.34}\protected@file@percent }
\newlabel{tab:performance_comparison}{{\caption@xref {tab:performance_comparison}{ on input line 1001}}{33}{Prosečne temperature u Beogradu}{table.caption.35}{}}
\@writefile{lot}{\contentsline {table}{\numberline {15}{\ignorespaces Poređenje performansi različitih modela za prosečne letnje temperature\relax }}{33}{table.caption.35}\protected@file@percent }
\newlabel{tab:performance_comparison}{{\caption@xref {tab:performance_comparison}{ on input line 1016}}{33}{Prosečne temperature u Beogradu}{table.caption.36}{}}
\@writefile{lot}{\contentsline {table}{\numberline {16}{\ignorespaces Poređenje performansi različitih modela za prosečne zimske temperature\relax }}{33}{table.caption.36}\protected@file@percent }
\bibcite{l1}{1}
\bibcite{l2}{2}
\bibcite{l3}{3}
\bibcite{l4}{4}
\bibcite{l5}{5}
\bibcite{l6}{6}
\bibcite{l7}{7}
\bibcite{l8}{8}
\@writefile{toc}{\contentsline {section}{\numberline {7}Literatura}{34}{section.7}\protected@file@percent }
